test.vcd
$date
	Wed Jul 22 16:08:03 2015
$end
$version
	Icarus Verilog
$end
$timescale
	1s
$end
$scope module Execute_tb $end
$var wire 5 ! DX_Rs [0:4] $end
$var wire 5 " DX_Rt [0:4] $end
$var wire 5 # FD_Rs [0:4] $end
$var wire 5 $ FD_Rt [0:4] $end
$var wire 5 % MW_Rd [0:4] $end
$var wire 5 & MW_Rt [0:4] $end
$var wire 5 ' XM_Rd [0:4] $end
$var wire 5 ( XM_Rs [0:4] $end
$var wire 5 ) XM_Rt [0:4] $end
$var wire 2 * acc_size_out [0:1] $end
$var wire 18 + control [0:17] $end
$var wire 32 , dataMem_addr [0:31] $end
$var wire 1 - dataMem_busy $end
$var wire 1 . dataMem_byteOnly $end
$var wire 32 / dataMem_data_in [0:31] $end
$var wire 1 0 dataMem_halfword $end
$var wire 32 1 dataMem_out [0:31] $end
$var wire 1 2 dataMem_ubyte $end
$var wire 32 3 effective_addr [0:31] $end
$var wire 32 4 exec_out [0:31] $end
$var wire 32 5 fetch_insn_addr [0:31] $end
$var wire 1 6 fetch_stall $end
$var wire 32 7 insnMem_addr [0:31] $end
$var wire 1 8 insnMem_busy $end
$var wire 1 9 insnMem_byteOnly $end
$var wire 32 : insnMem_data_in [0:31] $end
$var wire 1 ; insnMem_enable $end
$var wire 1 < insnMem_halfword $end
$var wire 32 = insnMem_out [0:31] $end
$var wire 1 > insnMem_ubyte $end
$var wire 32 ? insn_dec [0:31] $end
$var wire 32 @ insn_ex [0:31] $end
$var wire 32 A jump_addr [0:31] $end
$var wire 32 B pc_dec [0:31] $end
$var wire 32 C pc_ex [0:31] $end
$var wire 32 D pc_fetch [0:31] $end
$var wire 5 E rdIn_reg [0:4] $end
$var wire 5 F rsAddr [0:4] $end
$var wire 32 G rsIn_ex [0:31] $end
$var wire 32 H rsOut_reg [0:31] $end
$var wire 5 I rtAddr [0:4] $end
$var wire 32 J rtIn_ex [0:31] $end
$var wire 5 K rtIn_reg [0:4] $end
$var wire 32 L rtOut_reg [0:31] $end
$var wire 1 M rw $end
$var wire 32 N writeBackData [0:31] $end
$var reg 32 O A_mux_Output [0:31] $end
$var reg 32 P A_reg [0:31] $end
$var reg 32 Q B_mux_Output [0:31] $end
$var reg 32 R B_reg [0:31] $end
$var reg 32 S B_reg2 [0:31] $end
$var reg 32 T O_reg [0:31] $end
$var reg 32 U captured_data [0:31] $end
$var reg 1 V clock $end
$var reg 18 W control_ex [0:17] $end
$var reg 18 X control_reg [0:17] $end
$var reg 18 Y control_reg2 [0:17] $end
$var integer 32 Z counter [31:0] $end
$var reg 1 [ dataMem_Nop $end
$var reg 2 \ dataMem_acc_size [0:1] $end
$var reg 1 ] dataMem_enable $end
$var reg 1 ^ dataMem_wren $end
$var integer 32 _ data_file [31:0] $end
$var reg 32 ` data_in [0:31] $end
$var reg 32 a data_in_mux [0:31] $end
$var reg 1 b eof_flag $end
$var reg 169 c filename [0:168] $end
$var reg 1 d insnMem_Nop $end
$var reg 2 e insnMem_acc_size [0:1] $end
$var reg 1 f insnMem_enableReg $end
$var reg 1 g insnMem_wren $end
$var reg 32 h insnReg2Mux [0:31] $end
$var reg 32 i insn_reg2 [0:31] $end
$var reg 32 j insn_reg3 [0:31] $end
$var reg 32 k insn_reg4 [0:31] $end
$var reg 32 l load_mem_addr [0:31] $end
$var integer 32 m loop_count [31:0] $end
$var reg 32 n pc_reg1 [0:31] $end
$var reg 32 o pc_reg2 [0:31] $end
$var integer 32 p scan_file [31:0] $end
$var reg 1 q shouldStall $end
$var reg 1 r stall $end
$var reg 1 s valid_ex $end
$var reg 1 t valid_insn $end
$scope module fetch_module $end
$var wire 2 u acc_size_out [0:1] $end
$var wire 1 v clk $end
$var wire 18 w control [0:17] $end
$var wire 32 x jump_addr [0:31] $end
$var wire 1 M rw $end
$var wire 1 6 stall $end
$var reg 32 y address [0:31] $end
$var reg 32 z pc_out [0:31] $end
$upscope $end
$scope module insnMem_module $end
$var wire 2 { acc_size [0:1] $end
$var wire 32 | addr [0:31] $end
$var wire 1 9 byteOnly $end
$var wire 1 v clk $end
$var wire 32 } d_in [0:31] $end
$var wire 1 ; enable $end
$var wire 1 < halfWord $end
$var wire 32 ~ mem_index [0:31] $end
$var wire 4 !" num_words [0:3] $end
$var wire 1 "" outputNop $end
$var wire 32 #" start_index [0:31] $end
$var wire 1 > ubyte $end
$var wire 1 $" valid_addr $end
$var wire 1 %" wren $end
$var reg 2 &" acc_size_reg [0:1] $end
$var reg 32 '" addr_reg [0:31] $end
$var reg 1 (" busy $end
$var reg 6 )" counter [0:5] $end
$var reg 32 *" d_out [0:31] $end
$var integer 32 +" i [31:0] $end
$var reg 1 ," wren_reg $end
$scope task PrintStack $end
$var reg 32 -" address [0:31] $end
$var integer 32 ." i [31:0] $end
$var reg 32 /" result [0:31] $end
$upscope $end
$scope task dump $end
$var integer 32 0" filenum [31:0] $end
$var integer 32 1" i [31:0] $end
$upscope $end
$upscope $end
$scope module decode_module $end
$var wire 5 2" base [0:4] $end
$var wire 6 3" calc_type [0:5] $end
$var wire 1 v clk $end
$var wire 16 4" imm [0:15] $end
$var wire 32 5" insn [0:31] $end
$var wire 27 6" insn_index [0:26] $end
$var wire 1 7" isNoop $end
$var wire 16 8" offset [0:15] $end
$var wire 6 9" opcode [0:5] $end
$var wire 32 :" pc [0:31] $end
$var wire 5 ;" rd [0:4] $end
$var wire 5 <" rs [0:4] $end
$var wire 5 =" rt [0:4] $end
$var wire 5 >" sa [0:4] $end
$var wire 1 ?" valid_insn $end
$var reg 18 @" control [0:17] $end
$var integer 32 A" i [31:0] $end
$upscope $end
$scope module register_module $end
$var wire 1 v clock $end
$var wire 18 B" control [0:17] $end
$var wire 32 C" insn [0:31] $end
$var wire 5 D" rd [0:4] $end
$var wire 5 E" rdIn [0:4] $end
$var wire 5 F" rs [0:4] $end
$var wire 32 G" rsOut [0:31] $end
$var wire 5 H" rt [0:4] $end
$var wire 5 I" rtIn [0:4] $end
$var wire 32 J" rtOut [0:31] $end
$var wire 32 K" writeBackData [0:31] $end
$var wire 32 L" zero [0:31] $end
$var integer 32 M" i [31:0] $end
$var reg 32 N" rsOutreg [0:31] $end
$var reg 32 O" rtOutreg [0:31] $end
$scope task PrintRegs $end
$var integer 32 P" k [31:0] $end
$upscope $end
$upscope $end
$scope module execute_module $end
$var wire 32 Q" alu_A [0:31] $end
$var wire 32 R" alu_B [0:31] $end
$var wire 5 S" base [0:4] $end
$var wire 32 T" branch_address [0:31] $end
$var wire 3 U" branch_bits [0:2] $end
$var wire 1 v clock $end
$var wire 18 V" control [0:17] $end
$var wire 32 W" effective_addr [0:31] $end
$var wire 32 X" effective_branch_addr [0:31] $end
$var wire 6 Y" func [0:5] $end
$var wire 16 Z" imm [0:15] $end
$var wire 32 [" imm_32 [0:31] $end
$var wire 32 \" imm_leftshift [0:31] $end
$var wire 32 ]" insn [0:31] $end
$var wire 32 ^" insn_leftshift [0:31] $end
$var wire 32 _" jump_addr [0:31] $end
$var wire 32 `" jump_addr_withPC [0:31] $end
$var wire 28 a" jump_insn_index [0:27] $end
$var wire 16 b" offset [0:15] $end
$var wire 6 c" opcode [0:5] $end
$var wire 3 d" other_opcode_bits [0:2] $end
$var wire 32 e" pc [0:31] $end
$var wire 32 f" rs [0:31] $end
$var wire 32 g" rt [0:31] $end
$var wire 5 h" rt_addr [0:4] $end
$var wire 6 i" sa [0:5] $end
$var wire 1 j" valid_ex $end
$var reg 32 k" HI [0:31] $end
$var reg 32 l" LO [0:31] $end
$var reg 32 m" data_out [0:31] $end
$var reg 1 n" z $end
$upscope $end
$scope module dataMem_module $end
$var wire 2 o" acc_size [0:1] $end
$var wire 32 p" addr [0:31] $end
$var wire 1 . byteOnly $end
$var wire 1 v clk $end
$var wire 32 q" d_in [0:31] $end
$var wire 1 r" enable $end
$var wire 1 0 halfWord $end
$var wire 32 s" mem_index [0:31] $end
$var wire 4 t" num_words [0:3] $end
$var wire 1 u" outputNop $end
$var wire 32 v" start_index [0:31] $end
$var wire 1 2 ubyte $end
$var wire 1 w" valid_addr $end
$var wire 1 x" wren $end
$var reg 2 y" acc_size_reg [0:1] $end
$var reg 32 z" addr_reg [0:31] $end
$var reg 1 {" busy $end
$var reg 6 |" counter [0:5] $end
$var reg 32 }" d_out [0:31] $end
$var integer 32 ~" i [31:0] $end
$var reg 1 !# wren_reg $end
$scope task PrintStack $end
$var reg 32 "# address [0:31] $end
$var integer 32 ## i [31:0] $end
$var reg 32 $# result [0:31] $end
$upscope $end
$scope task dump $end
$var integer 32 %# filenum [31:0] $end
$var integer 32 &# i [31:0] $end
$upscope $end
$upscope $end
$scope module writeBack_module $end
$var wire 18 '# control [0:17] $end
$var wire 32 (# data_out [0:31] $end
$var wire 32 )# exec_out [0:31] $end
$var wire 32 *# mem_out [0:31] $end
$upscope $end
$scope task OpenFile $end
$upscope $end
$scope task ReadFile $end
$upscope $end
$upscope $end
$enddefinitions $end
#0
$dumpvars
bx *#
bx )#
bx (#
bx '#
bx &#
bx %#
bx $#
bx ##
bx "#
0!#
b100000000000000000010 ~"
bx }"
b0 |"
x{"
bx z"
b0 y"
0x"
xw"
bx v"
0u"
b0 t"
bx s"
1r"
bx q"
bx p"
b0 o"
xn"
bx m"
bx l"
bx k"
0j"
b0xxxxx i"
bx h"
bx g"
bx f"
bx e"
bx d"
bx c"
bx b"
b0xxxxxxxxxxxxxxxxxxxxxxxxxx a"
bx `"
bx _"
bx ^"
bx ]"
bx \"
b0xxxxxxxxxxxxxxxx ["
bx Z"
bx Y"
bx X"
bx W"
bx V"
bx U"
bx T"
bx S"
bx R"
bx Q"
bx P"
bx O"
bx N"
b100000 M"
b0 L"
bx K"
bx J"
bx I"
bx H"
bx G"
bx F"
bx E"
bx D"
bx C"
bx B"
b10010 A"
b0 @"
0?"
bx >"
bx ="
bx <"
bx ;"
b10000000000000100000000000000000 :"
bx 9"
bx 8"
x7"
b0xxxxxxxxxxxxxxxxxxxxxxxxxx 6"
bx 5"
bx 4"
bx 3"
bx 2"
bx 1"
bx 0"
bx /"
bx ."
bx -"
1,"
b100000000000000000010 +"
bx *"
b0 )"
x("
bx '"
b0 &"
1%"
x$"
bx #"
0""
b0 !"
bx ~
bx }
bx |
b0 {
b10000000000000100000000000000000 z
bx y
bx x
bx w
0v
b0 u
0t
0s
1r
0q
bx p
bx o
bx n
b1 m
b10000000000000100000000000000000 l
bx k
bx j
bx i
bx h
1g
1f
b0 e
0d
b100010001100101011011010110111101000100011011110110111101101101001100100011000000110001001101010010111001111000 c
xb
bx a
bx `
b10000000000000000000000000000011 _
0^
1]
b0 \
0[
bx Z
bx Y
bx X
bx W
0V
bx U
bx T
bx S
bx R
bx Q
bx P
bx O
bx N
zM
bx L
bx K
bx J
bx I
bx H
bx G
bx F
bx E
b10000000000000100000000000000000 D
bx C
b10000000000000100000000000000000 B
bx A
bx @
bx ?
0>
bx =
0<
1;
bx :
09
x8
bx 7
16
bx 5
bx 4
bx 3
x2
bx 1
x0
bx /
x.
x-
bx ,
b0 +
b0 *
bx )
bx (
bx '
bx &
bx %
bx $
bx #
bx "
bx !
$end
#10
b100111101111011111111111010000 /
b100111101111011111111111010000 q"
b1 Z
b100111101111011111111111010000 `
b100111101111011111111111010000 :
b100111101111011111111111010000 }
0("
08
0{"
0-
1^
1x"
1$"
1w"
b0 ~
b0 #"
b0 s"
b0 v"
b10000000000000100000000000000000 7
b10000000000000100000000000000000 |
b10000000000000100000000000000000 ,
b10000000000000100000000000000000 p"
0b
b1 p
b100111101111011111111111010000 U
1V
1v
#20
1!#
b10000000000000100000000000000000 z"
b10000000000000100000000000000000 '"
0V
0v
#30
b100 ~
b100 #"
b100 s"
b100 v"
b10000000000000100000000000000100 7
b10000000000000100000000000000100 |
b10000000000000100000000000000100 ,
b10000000000000100000000000000100 p"
b10101111101111110000000000101100 /
b10101111101111110000000000101100 q"
b10 Z
b10000000000000100000000000000100 l
b10101111101111110000000000101100 `
b10101111101111110000000000101100 :
b10101111101111110000000000101100 }
b10101111101111110000000000101100 U
1V
1v
#40
b10000000000000100000000000000100 '"
b10000000000000100000000000000100 z"
0V
0v
#50
b1000 ~
b1000 #"
b1000 s"
b1000 v"
b10000000000000100000000000001000 7
b10000000000000100000000000001000 |
b10000000000000100000000000001000 ,
b10000000000000100000000000001000 p"
b10101111101111100000000000101000 /
b10101111101111100000000000101000 q"
b11 Z
b10000000000000100000000000001000 l
b10101111101111100000000000101000 `
b10101111101111100000000000101000 :
b10101111101111100000000000101000 }
b10101111101111100000000000101000 U
1V
1v
#60
b10000000000000100000000000001000 z"
b10000000000000100000000000001000 '"
0V
0v
#70
b1100 ~
b1100 #"
b1100 s"
b1100 v"
b10000000000000100000000000001100 7
b10000000000000100000000000001100 |
b10000000000000100000000000001100 ,
b10000000000000100000000000001100 p"
b11101000001111000000100001 /
b11101000001111000000100001 q"
b100 Z
b10000000000000100000000000001100 l
b11101000001111000000100001 `
b11101000001111000000100001 :
b11101000001111000000100001 }
b11101000001111000000100001 U
1V
1v
#80
b10000000000000100000000000001100 '"
b10000000000000100000000000001100 z"
0V
0v
#90
b10000 ~
b10000 #"
b10000 s"
b10000 v"
b10000000000000100000000000010000 7
b10000000000000100000000000010000 |
b10000000000000100000000000010000 ,
b10000000000000100000000000010000 p"
b100100000000100000000000000101 /
b100100000000100000000000000101 q"
b101 Z
b10000000000000100000000000010000 l
b100100000000100000000000000101 `
b100100000000100000000000000101 :
b100100000000100000000000000101 }
b100100000000100000000000000101 U
1V
1v
#100
b10000000000000100000000000010000 z"
b10000000000000100000000000010000 '"
0V
0v
#110
b10100 ~
b10100 #"
b10100 s"
b10100 v"
b10000000000000100000000000010100 7
b10000000000000100000000000010100 |
b10000000000000100000000000010100 ,
b10000000000000100000000000010100 p"
b10101111110000100000000000011100 /
b10101111110000100000000000011100 q"
b110 Z
b10000000000000100000000000010100 l
b10101111110000100000000000011100 `
b10101111110000100000000000011100 :
b10101111110000100000000000011100 }
b10101111110000100000000000011100 U
1V
1v
#120
b10000000000000100000000000010100 '"
b10000000000000100000000000010100 z"
0V
0v
#130
b11000 ~
b11000 #"
b11000 s"
b11000 v"
b10000000000000100000000000011000 7
b10000000000000100000000000011000 |
b10000000000000100000000000011000 ,
b10000000000000100000000000011000 p"
b100100000000100000000000001001 /
b100100000000100000000000001001 q"
b111 Z
b10000000000000100000000000011000 l
b100100000000100000000000001001 `
b100100000000100000000000001001 :
b100100000000100000000000001001 }
b100100000000100000000000001001 U
1V
1v
#140
b10000000000000100000000000011000 z"
b10000000000000100000000000011000 '"
0V
0v
#150
b11100 ~
b11100 #"
b11100 s"
b11100 v"
b10000000000000100000000000011100 7
b10000000000000100000000000011100 |
b10000000000000100000000000011100 ,
b10000000000000100000000000011100 p"
b10101111110000100000000000100000 /
b10101111110000100000000000100000 q"
b1000 Z
b10000000000000100000000000011100 l
b10101111110000100000000000100000 `
b10101111110000100000000000100000 :
b10101111110000100000000000100000 }
b10101111110000100000000000100000 U
1V
1v
#160
b10000000000000100000000000011100 '"
b10000000000000100000000000011100 z"
0V
0v
#170
b100000 ~
b100000 #"
b100000 s"
b100000 v"
b10000000000000100000000000100000 7
b10000000000000100000000000100000 |
b10000000000000100000000000100000 ,
b10000000000000100000000000100000 p"
b10100111110000000000000000010000 /
b10100111110000000000000000010000 q"
b1001 Z
b10000000000000100000000000100000 l
b10100111110000000000000000010000 `
b10100111110000000000000000010000 :
b10100111110000000000000000010000 }
b10100111110000000000000000010000 U
1V
1v
#180
b10000000000000100000000000100000 z"
b10000000000000100000000000100000 '"
0V
0v
#190
b100100 ~
b100100 #"
b100100 s"
b100100 v"
b10000000000000100000000000100100 7
b10000000000000100000000000100100 |
b10000000000000100000000000100100 ,
b10000000000000100000000000100100 p"
b10001111110000100000000000100000 /
b10001111110000100000000000100000 q"
b1010 Z
b10000000000000100000000000100100 l
b10001111110000100000000000100000 `
b10001111110000100000000000100000 :
b10001111110000100000000000100000 }
b10001111110000100000000000100000 U
1V
1v
#200
b10000000000000100000000000100100 '"
b10000000000000100000000000100100 z"
0V
0v
#210
b101000 ~
b101000 #"
b101000 s"
b101000 v"
b10000000000000100000000000101000 7
b10000000000000100000000000101000 |
b10000000000000100000000000101000 ,
b10000000000000100000000000101000 p"
b100001000010000000 /
b100001000010000000 q"
b1011 Z
b10000000000000100000000000101000 l
b100001000010000000 `
b100001000010000000 :
b100001000010000000 }
b100001000010000000 U
1V
1v
#220
b10000000000000100000000000101000 z"
b10000000000000100000000000101000 '"
0V
0v
#230
b101100 ~
b101100 #"
b101100 s"
b101100 v"
b10000000000000100000000000101100 7
b10000000000000100000000000101100 |
b10000000000000100000000000101100 ,
b10000000000000100000000000101100 p"
b10101111110000100000000000100000 /
b10101111110000100000000000100000 q"
b1100 Z
b10000000000000100000000000101100 l
b10101111110000100000000000100000 `
b10101111110000100000000000100000 :
b10101111110000100000000000100000 }
b10101111110000100000000000100000 U
1V
1v
#240
b10000000000000100000000000101100 '"
b10000000000000100000000000101100 z"
0V
0v
#250
b110000 ~
b110000 #"
b110000 s"
b110000 v"
b10000000000000100000000000110000 7
b10000000000000100000000000110000 |
b10000000000000100000000000110000 ,
b10000000000000100000000000110000 p"
b10001111110000100000000000011100 /
b10001111110000100000000000011100 q"
b1101 Z
b10000000000000100000000000110000 l
b10001111110000100000000000011100 `
b10001111110000100000000000011100 :
b10001111110000100000000000011100 }
b10001111110000100000000000011100 U
1V
1v
#260
b10000000000000100000000000110000 z"
b10000000000000100000000000110000 '"
0V
0v
#270
b110100 ~
b110100 #"
b110100 s"
b110100 v"
b10000000000000100000000000110100 7
b10000000000000100000000000110100 |
b10000000000000100000000000110100 ,
b10000000000000100000000000110100 p"
b100001000001000011 /
b100001000001000011 q"
b1110 Z
b10000000000000100000000000110100 l
b100001000001000011 `
b100001000001000011 :
b100001000001000011 }
b100001000001000011 U
1V
1v
#280
b10000000000000100000000000110100 '"
b10000000000000100000000000110100 z"
0V
0v
#290
b111000 ~
b111000 #"
b111000 s"
b111000 v"
b10000000000000100000000000111000 7
b10000000000000100000000000111000 |
b10000000000000100000000000111000 ,
b10000000000000100000000000111000 p"
b10101111110000100000000000011100 /
b10101111110000100000000000011100 q"
b1111 Z
b10000000000000100000000000111000 l
b10101111110000100000000000011100 `
b10101111110000100000000000011100 :
b10101111110000100000000000011100 }
b10101111110000100000000000011100 U
1V
1v
#300
b10000000000000100000000000111000 z"
b10000000000000100000000000111000 '"
0V
0v
#310
b111100 ~
b111100 #"
b111100 s"
b111100 v"
b10000000000000100000000000111100 7
b10000000000000100000000000111100 |
b10000000000000100000000000111100 ,
b10000000000000100000000000111100 p"
b10001111110000100000000000011100 /
b10001111110000100000000000011100 q"
b10000 Z
b10000000000000100000000000111100 l
b10001111110000100000000000011100 `
b10001111110000100000000000011100 :
b10001111110000100000000000011100 }
b10001111110000100000000000011100 U
1V
1v
#320
b10000000000000100000000000111100 '"
b10000000000000100000000000111100 z"
0V
0v
#330
b1000000 ~
b1000000 #"
b1000000 s"
b1000000 v"
b10000000000000100000000001000000 7
b10000000000000100000000001000000 |
b10000000000000100000000001000000 ,
b10000000000000100000000001000000 p"
b110000010000111111111111111111 /
b110000010000111111111111111111 q"
b10001 Z
b10000000000000100000000001000000 l
b110000010000111111111111111111 `
b110000010000111111111111111111 :
b110000010000111111111111111111 }
b110000010000111111111111111111 U
1V
1v
#340
b10000000000000100000000001000000 z"
b10000000000000100000000001000000 '"
0V
0v
#350
b1000100 ~
b1000100 #"
b1000100 s"
b1000100 v"
b10000000000000100000000001000100 7
b10000000000000100000000001000100 |
b10000000000000100000000001000100 ,
b10000000000000100000000001000100 p"
b10001111110000100000000000100000 /
b10001111110000100000000000100000 q"
b10010 Z
b10000000000000100000000001000100 l
b10001111110000100000000000100000 `
b10001111110000100000000000100000 :
b10001111110000100000000000100000 }
b10001111110000100000000000100000 U
1V
1v
#360
b10000000000000100000000001000100 '"
b10000000000000100000000001000100 z"
0V
0v
#370
b1001000 ~
b1001000 #"
b1001000 s"
b1001000 v"
b10000000000000100000000001001000 7
b10000000000000100000000001001000 |
b10000000000000100000000001001000 ,
b10000000000000100000000001001000 p"
b110000010000101111111111111111 /
b110000010000101111111111111111 q"
b10011 Z
b10000000000000100000000001001000 l
b110000010000101111111111111111 `
b110000010000101111111111111111 :
b110000010000101111111111111111 }
b110000010000101111111111111111 U
1V
1v
#380
b10000000000000100000000001001000 z"
b10000000000000100000000001001000 '"
0V
0v
#390
b1001100 ~
b1001100 #"
b1001100 s"
b1001100 v"
b10000000000000100000000001001100 7
b10000000000000100000000001001100 |
b10000000000000100000000001001100 ,
b10000000000000100000000001001100 p"
b1110000011000100001000000000010 /
b1110000011000100001000000000010 q"
b10100 Z
b10000000000000100000000001001100 l
b1110000011000100001000000000010 `
b1110000011000100001000000000010 :
b1110000011000100001000000000010 }
b1110000011000100001000000000010 U
1V
1v
#400
b10000000000000100000000001001100 '"
b10000000000000100000000001001100 z"
0V
0v
#410
b1010000 ~
b1010000 #"
b1010000 s"
b1010000 v"
b10000000000000100000000001010000 7
b10000000000000100000000001010000 |
b10000000000000100000000001010000 ,
b10000000000000100000000001010000 p"
b110000010000101111111111111111 /
b110000010000101111111111111111 q"
b10101 Z
b10000000000000100000000001010000 l
b110000010000101111111111111111 `
b110000010000101111111111111111 :
b110000010000101111111111111111 }
b110000010000101111111111111111 U
1V
1v
#420
b10000000000000100000000001010000 z"
b10000000000000100000000001010000 '"
0V
0v
#430
b1010100 ~
b1010100 #"
b1010100 s"
b1010100 v"
b10000000000000100000000001010100 7
b10000000000000100000000001010100 |
b10000000000000100000000001010100 ,
b10000000000000100000000001010100 p"
b100001010000000000 /
b100001010000000000 q"
b10110 Z
b10000000000000100000000001010100 l
b100001010000000000 `
b100001010000000000 :
b100001010000000000 }
b100001010000000000 U
1V
1v
#440
b10000000000000100000000001010100 '"
b10000000000000100000000001010100 z"
0V
0v
#450
b1011000 ~
b1011000 #"
b1011000 s"
b1011000 v"
b10000000000000100000000001011000 7
b10000000000000100000000001011000 |
b10000000000000100000000001011000 ,
b10000000000000100000000001011000 p"
b100001010000000011 /
b100001010000000011 q"
b10111 Z
b10000000000000100000000001011000 l
b100001010000000011 `
b100001010000000011 :
b100001010000000011 }
b100001010000000011 U
1V
1v
#460
b10000000000000100000000001011000 z"
b10000000000000100000000001011000 '"
0V
0v
#470
b1011100 ~
b1011100 #"
b1011100 s"
b1011100 v"
b10000000000000100000000001011100 7
b10000000000000100000000001011100 |
b10000000000000100000000001011100 ,
b10000000000000100000000001011100 p"
b110000010000100000000011111111 /
b110000010000100000000011111111 q"
b11000 Z
b10000000000000100000000001011100 l
b110000010000100000000011111111 `
b110000010000100000000011111111 :
b110000010000100000000011111111 }
b110000010000100000000011111111 U
1V
1v
#480
b10000000000000100000000001011100 '"
b10000000000000100000000001011100 z"
0V
0v
#490
b1100000 ~
b1100000 #"
b1100000 s"
b1100000 v"
b10000000000000100000000001100000 7
b10000000000000100000000001100000 |
b10000000000000100000000001100000 ,
b10000000000000100000000001100000 p"
b10100111110000100000000000010000 /
b10100111110000100000000000010000 q"
b11001 Z
b10000000000000100000000001100000 l
b10100111110000100000000000010000 `
b10100111110000100000000000010000 :
b10100111110000100000000000010000 }
b10100111110000100000000000010000 U
1V
1v
#500
b10000000000000100000000001100000 z"
b10000000000000100000000001100000 '"
0V
0v
#510
b1100100 ~
b1100100 #"
b1100100 s"
b1100100 v"
b10000000000000100000000001100100 7
b10000000000000100000000001100100 |
b10000000000000100000000001100100 ,
b10000000000000100000000001100100 p"
b100111110000100000000000011100 /
b100111110000100000000000011100 q"
b11010 Z
b10000000000000100000000001100100 l
b100111110000100000000000011100 `
b100111110000100000000000011100 :
b100111110000100000000000011100 }
b100111110000100000000000011100 U
1V
1v
#520
b10000000000000100000000001100100 '"
b10000000000000100000000001100100 z"
0V
0v
#530
b1101000 ~
b1101000 #"
b1101000 s"
b1101000 v"
b10000000000000100000000001101000 7
b10000000000000100000000001101000 |
b10000000000000100000000001101000 ,
b10000000000000100000000001101000 p"
b10101111110000100000000000010100 /
b10101111110000100000000000010100 q"
b11011 Z
b10000000000000100000000001101000 l
b10101111110000100000000000010100 `
b10101111110000100000000000010100 :
b10101111110000100000000000010100 }
b10101111110000100000000000010100 U
1V
1v
#540
b10000000000000100000000001101000 z"
b10000000000000100000000001101000 '"
0V
0v
#550
b1101100 ~
b1101100 #"
b1101100 s"
b1101100 v"
b10000000000000100000000001101100 7
b10000000000000100000000001101100 |
b10000000000000100000000001101100 ,
b10000000000000100000000001101100 p"
b100111110000100000000000100000 /
b100111110000100000000000100000 q"
b11100 Z
b10000000000000100000000001101100 l
b100111110000100000000000100000 `
b100111110000100000000000100000 :
b100111110000100000000000100000 }
b100111110000100000000000100000 U
1V
1v
#560
b10000000000000100000000001101100 '"
b10000000000000100000000001101100 z"
0V
0v
#570
b1110000 ~
b1110000 #"
b1110000 s"
b1110000 v"
b10000000000000100000000001110000 7
b10000000000000100000000001110000 |
b10000000000000100000000001110000 ,
b10000000000000100000000001110000 p"
b10101111110000100000000000011000 /
b10101111110000100000000000011000 q"
b11101 Z
b10000000000000100000000001110000 l
b10101111110000100000000000011000 `
b10101111110000100000000000011000 :
b10101111110000100000000000011000 }
b10101111110000100000000000011000 U
1V
1v
#580
b10000000000000100000000001110000 z"
b10000000000000100000000001110000 '"
0V
0v
#590
b1110100 ~
b1110100 #"
b1110100 s"
b1110100 v"
b10000000000000100000000001110100 7
b10000000000000100000000001110100 |
b10000000000000100000000001110100 ,
b10000000000000100000000001110100 p"
b10001111110001000000000000010100 /
b10001111110001000000000000010100 q"
b11110 Z
b10000000000000100000000001110100 l
b10001111110001000000000000010100 `
b10001111110001000000000000010100 :
b10001111110001000000000000010100 }
b10001111110001000000000000010100 U
1V
1v
#600
b10000000000000100000000001110100 '"
b10000000000000100000000001110100 z"
0V
0v
#610
b1111000 ~
b1111000 #"
b1111000 s"
b1111000 v"
b10000000000000100000000001111000 7
b10000000000000100000000001111000 |
b10000000000000100000000001111000 ,
b10000000000000100000000001111000 p"
b10001111110001010000000000011000 /
b10001111110001010000000000011000 q"
b11111 Z
b10000000000000100000000001111000 l
b10001111110001010000000000011000 `
b10001111110001010000000000011000 :
b10001111110001010000000000011000 }
b10001111110001010000000000011000 U
1V
1v
#620
b10000000000000100000000001111000 z"
b10000000000000100000000001111000 '"
0V
0v
#630
b1111100 ~
b1111100 #"
b1111100 s"
b1111100 v"
b10000000000000100000000001111100 7
b10000000000000100000000001111100 |
b10000000000000100000000001111100 ,
b10000000000000100000000001111100 p"
b1100000000001000000001001100 /
b1100000000001000000001001100 q"
b100000 Z
b10000000000000100000000001111100 l
b1100000000001000000001001100 `
b1100000000001000000001001100 :
b1100000000001000000001001100 }
b1100000000001000000001001100 U
1V
1v
#640
b10000000000000100000000001111100 '"
b10000000000000100000000001111100 z"
0V
0v
#650
b10000000 ~
b10000000 #"
b10000000 s"
b10000000 v"
b10000000000000100000000010000000 7
b10000000000000100000000010000000 |
b10000000000000100000000010000000 ,
b10000000000000100000000010000000 p"
b0 /
b0 q"
b100001 Z
b10000000000000100000000010000000 l
b0 `
b0 :
b0 }
b0 U
1V
1v
#660
b10000000000000100000000010000000 z"
b10000000000000100000000010000000 '"
0V
0v
#670
b10000100 ~
b10000100 #"
b10000100 s"
b10000100 v"
b10000000000000100000000010000100 7
b10000000000000100000000010000100 |
b10000000000000100000000010000100 ,
b10000000000000100000000010000100 p"
b10001111110000100000000000010100 /
b10001111110000100000000000010100 q"
b100010 Z
b10000000000000100000000010000100 l
b10001111110000100000000000010100 `
b10001111110000100000000000010100 :
b10001111110000100000000000010100 }
b10001111110000100000000000010100 U
1V
1v
#680
b10000000000000100000000010000100 '"
b10000000000000100000000010000100 z"
0V
0v
#690
b10001000 ~
b10001000 #"
b10001000 s"
b10001000 v"
b10000000000000100000000010001000 7
b10000000000000100000000010001000 |
b10000000000000100000000010001000 ,
b10000000000000100000000010001000 p"
b10001100010000100000000000000000 /
b10001100010000100000000000000000 q"
b100011 Z
b10000000000000100000000010001000 l
b10001100010000100000000000000000 `
b10001100010000100000000000000000 :
b10001100010000100000000000000000 }
b10001100010000100000000000000000 U
1V
1v
#700
b10000000000000100000000010001000 z"
b10000000000000100000000010001000 '"
0V
0v
#710
b10001100 ~
b10001100 #"
b10001100 s"
b10001100 v"
b10000000000000100000000010001100 7
b10000000000000100000000010001100 |
b10000000000000100000000010001100 ,
b10000000000000100000000010001100 p"
b10101111110000100000000000011100 /
b10101111110000100000000000011100 q"
b100100 Z
b10000000000000100000000010001100 l
b10101111110000100000000000011100 `
b10101111110000100000000000011100 :
b10101111110000100000000000011100 }
b10101111110000100000000000011100 U
1V
1v
#720
b10000000000000100000000010001100 '"
b10000000000000100000000010001100 z"
0V
0v
#730
b10010000 ~
b10010000 #"
b10010000 s"
b10010000 v"
b10000000000000100000000010010000 7
b10000000000000100000000010010000 |
b10000000000000100000000010010000 ,
b10000000000000100000000010010000 p"
b10001111110000100000000000011000 /
b10001111110000100000000000011000 q"
b100101 Z
b10000000000000100000000010010000 l
b10001111110000100000000000011000 `
b10001111110000100000000000011000 :
b10001111110000100000000000011000 }
b10001111110000100000000000011000 U
1V
1v
#740
b10000000000000100000000010010000 z"
b10000000000000100000000010010000 '"
0V
0v
